(module WSON-12-1EP_3x3mm_P0.5mm_EP1.5x2.5mm_ThermalVias (layer F.Cu) (tedit 64470956)
  (descr "WSON, 12 Pin (https://www.ti.com/lit/ds/symlink/tps63710.pdf#page=34), generated with kicad-footprint-generator ipc_noLead_generator.py")
  (tags "WSON NoLead")
  (attr smd)
  (fp_text reference REF** (at 0 -2.45) (layer F.SilkS)
    (effects (font (size 1 1) (thickness 0.15)))
  )
  (fp_text value WSON-12-1EP_3x3mm_P0.5mm_EP1.5x2.5mm_ThermalVias (at 0 2.45) (layer F.Fab)
    (effects (font (size 1 1) (thickness 0.15)))
  )
  (fp_line (start 0 -1.61) (end 1.5 -1.61) (layer F.SilkS) (width 0.12))
  (fp_line (start -1.5 1.61) (end 1.5 1.61) (layer F.SilkS) (width 0.12))
  (fp_line (start -0.75 -1.5) (end 1.5 -1.5) (layer F.Fab) (width 0.1))
  (fp_line (start 1.5 -1.5) (end 1.5 1.5) (layer F.Fab) (width 0.1))
  (fp_line (start 1.5 1.5) (end -1.5 1.5) (layer F.Fab) (width 0.1))
  (fp_line (start -1.5 1.5) (end -1.5 -0.75) (layer F.Fab) (width 0.1))
  (fp_line (start -1.5 -0.75) (end -0.75 -1.5) (layer F.Fab) (width 0.1))
  (fp_line (start -2.12 -1.75) (end -2.12 1.75) (layer F.CrtYd) (width 0.05))
  (fp_line (start -2.12 1.75) (end 2.12 1.75) (layer F.CrtYd) (width 0.05))
  (fp_line (start 2.12 1.75) (end 2.12 -1.75) (layer F.CrtYd) (width 0.05))
  (fp_line (start 2.12 -1.75) (end -2.12 -1.75) (layer F.CrtYd) (width 0.05))
  (pad 1 smd roundrect (at -1.4375 -1.25) (size 0.875 0.25) (layers F.Cu F.Mask F.Paste) (roundrect_rratio 0.25))
  (pad 2 smd roundrect (at -1.4375 -0.75) (size 0.875 0.25) (layers F.Cu F.Mask F.Paste) (roundrect_rratio 0.25))
  (pad 3 smd roundrect (at -1.4375 -0.25) (size 0.875 0.25) (layers F.Cu F.Mask F.Paste) (roundrect_rratio 0.25))
  (pad 4 smd roundrect (at -1.4375 0.25) (size 0.875 0.25) (layers F.Cu F.Mask F.Paste) (roundrect_rratio 0.25))
  (pad 5 smd roundrect (at -1.4375 0.75) (size 0.875 0.25) (layers F.Cu F.Mask F.Paste) (roundrect_rratio 0.25))
  (pad 6 smd roundrect (at -1.4375 1.25) (size 0.875 0.25) (layers F.Cu F.Mask F.Paste) (roundrect_rratio 0.25))
  (pad 7 smd roundrect (at 1.4375 1.25) (size 0.875 0.25) (layers F.Cu F.Mask F.Paste) (roundrect_rratio 0.25))
  (pad 8 smd roundrect (at 1.4375 0.75) (size 0.875 0.25) (layers F.Cu F.Mask F.Paste) (roundrect_rratio 0.25))
  (pad 9 smd roundrect (at 1.4375 0.25) (size 0.875 0.25) (layers F.Cu F.Mask F.Paste) (roundrect_rratio 0.25))
  (pad 10 smd roundrect (at 1.4375 -0.25) (size 0.875 0.25) (layers F.Cu F.Mask F.Paste) (roundrect_rratio 0.25))
  (pad 11 smd roundrect (at 1.4375 -0.75) (size 0.875 0.25) (layers F.Cu F.Mask F.Paste) (roundrect_rratio 0.25))
  (pad 12 smd roundrect (at 1.4375 -1.25) (size 0.875 0.25) (layers F.Cu F.Mask F.Paste) (roundrect_rratio 0.25))
  (pad 13 smd rect (at 0 0) (size 1.5 2.5) (layers F.Cu F.Mask))
  (pad 13 thru_hole circle (at -0.5 -1) (size 0.5 0.5) (drill 0.2) (layers *.Cu))
  (pad 13 thru_hole circle (at 0.5 -1) (size 0.5 0.5) (drill 0.2) (layers *.Cu))
  (pad 13 thru_hole circle (at -0.5 1) (size 0.5 0.5) (drill 0.2) (layers *.Cu))
  (pad 13 thru_hole circle (at 0.5 1) (size 0.5 0.5) (drill 0.2) (layers *.Cu))
  (pad 13 smd rect (at 0 0) (size 1.5 2.5) (layers B.Cu))
  (pad "" smd roundrect (at 0 -0.625) (size 1.3 1.08) (layers F.Paste) (roundrect_rratio 0.231481))
  (pad "" smd roundrect (at 0 0.625) (size 1.3 1.08) (layers F.Paste) (roundrect_rratio 0.231481))
  (fp_text user ${REFERENCE} (at 0 0) (layer F.Fab)
    (effects (font (size 0.75 0.75) (thickness 0.11)))
  )
  (model ${KICAD7_3DMODEL_DIR}/Package_DFN_QFN.3dshapes/WSON-12-1EP_3x3mm_P0.5mm_EP1.5x2.5mm.wrl
    (at (xyz 0 0 0))
    (scale (xyz 1 1 1))
    (rotate (xyz 0 0 0))
  )
)
